{
  "index": [
    {
      "name": "guides",
      "title": "Product guides",
      "section": null,
      "headings": [
        {
          "items": [
            {
              "url": "https://docs.atlassian.com/bamboo/REST/latest/",
              "title": "Bamboo Server REST API"
            },
            {
              "url": "https://docs.atlassian.com/atlassian-bamboo/latest/",
              "title": "Bamboo Server API"
            },
            {
              "url": "/display/FECRUDEV/REST+API+Guide",
              "title": "Fisheye and Crucible REST API"
            },
            {
              "url": "/fecrudev/java-api-reference",
              "title": "Fisheye and Crucible API"
            }
          ],
          "name": "",
          "title": "",
          "heading": null
        }
      ]
    }
  ]
}
